M 1 90 0 0
M 0 0 0 0
E 0 0 0 0 2 0 1

M 1 0 0 0
M 0 0 0 0
E 0 0 0 0 2 0 1

M 1 -90 0 0
M 0 0 0 0
E 0 0 0 0 2 0 1

M 1 -90 -90 0
M 0 0 0 0
E 0 0 0 0 2 0 1

M 1 -90 -90 0
M 0 0 0 0
E 0 0 0 0 2 0 1
E 0 1 1 0 2 1 1

M 1 -90 -90 0
M 0 0 0 0
E 0 1 1 0 2 1 1

M 1 0 -90 0
M 0 0 0 0
E 0 1 1 0 2 1 1

M 1 0 0 0
M 0 0 0 0
E 0 1 1 0 2 1 1

M 1 0 90 0
M 0 0 0 0
E 0 1 1 0 2 1 1
